EESchema Schematic File Version 2
LIBS:device
LIBS:transistors
LIBS:conn
LIBS:linear
LIBS:regul
LIBS:74xx
LIBS:cmos4000
LIBS:adc-dac
LIBS:memory
LIBS:xilinx
LIBS:special
LIBS:microcontrollers
LIBS:dsp
LIBS:microchip
LIBS:analog_switches
LIBS:motorola
LIBS:texas
LIBS:intel
LIBS:audio
LIBS:interface
LIBS:digital-audio
LIBS:philips
LIBS:display
LIBS:cypress
LIBS:siliconi
LIBS:opto
LIBS:atmel
LIBS:contrib
LIBS:valves
LIBS:mycomponents
LIBS:power
LIBS:kbboard-cache
EELAYER 25 0
EELAYER END
$Descr A4 11693 8268
encoding utf-8
Sheet 3 4
Title ""
Date ""
Rev ""
Comp ""
Comment1 ""
Comment2 ""
Comment3 ""
Comment4 ""
$EndDescr
$Comp
L LED D3
U 1 1 54E4E2F4
P 10600 1100
F 0 "D3" H 10600 1200 50  0000 C CNN
F 1 "LED" H 10600 1000 50  0000 C CNN
F 2 "" H 10600 1100 60  0000 C CNN
F 3 "" H 10600 1100 60  0000 C CNN
	1    10600 1100
	0    1    1    0   
$EndComp
$Comp
L npn Q4
U 1 1 54E4E67E
P 10500 1600
F 0 "Q4" H 10500 1450 50  0000 R CNN
F 1 "npn" H 10500 1750 50  0000 R CNN
F 2 "" H 10500 1600 60  0000 C CNN
F 3 "" H 10500 1600 60  0000 C CNN
	1    10500 1600
	1    0    0    -1  
$EndComp
$Comp
L R R38
U 1 1 54E4E6C1
P 10600 2150
F 0 "R38" V 10680 2150 50  0000 C CNN
F 1 "R" V 10607 2151 50  0000 C CNN
F 2 "" V 10530 2150 30  0000 C CNN
F 3 "" H 10600 2150 30  0000 C CNN
	1    10600 2150
	1    0    0    -1  
$EndComp
$Comp
L GND #PWR58
U 1 1 54E4E738
P 10600 2500
F 0 "#PWR58" H 10600 2250 60  0001 C CNN
F 1 "GND" H 10600 2350 60  0000 C CNN
F 2 "" H 10600 2500 60  0000 C CNN
F 3 "" H 10600 2500 60  0000 C CNN
	1    10600 2500
	1    0    0    -1  
$EndComp
Wire Wire Line
	10600 1800 10600 1900
Wire Wire Line
	10600 2400 10600 2500
Wire Wire Line
	10600 1300 10600 1400
$Comp
L VCC #PWR57
U 1 1 54E4E8FF
P 10600 800
F 0 "#PWR57" H 10600 650 60  0001 C CNN
F 1 "VCC" H 10600 950 60  0000 C CNN
F 2 "" H 10600 800 60  0000 C CNN
F 3 "" H 10600 800 60  0000 C CNN
	1    10600 800 
	1    0    0    -1  
$EndComp
Wire Wire Line
	10600 800  10600 900 
$Comp
L R R16
U 1 1 54E4E97C
P 9950 1600
F 0 "R16" V 10030 1600 50  0000 C CNN
F 1 "R" V 9957 1601 50  0000 C CNN
F 2 "" V 9880 1600 30  0000 C CNN
F 3 "" H 9950 1600 30  0000 C CNN
	1    9950 1600
	0    1    1    0   
$EndComp
Wire Wire Line
	10200 1600 10300 1600
$Comp
L npn Q2
U 1 1 54E4EA99
P 9500 1300
F 0 "Q2" H 9500 1150 50  0000 R CNN
F 1 "npn" H 9500 1450 50  0000 R CNN
F 2 "" H 9500 1300 60  0000 C CNN
F 3 "" H 9500 1300 60  0000 C CNN
	1    9500 1300
	1    0    0    -1  
$EndComp
Wire Wire Line
	9600 1500 9600 1600
Wire Wire Line
	9600 1600 9700 1600
$Comp
L VCC #PWR51
U 1 1 54E4EB9D
P 9600 800
F 0 "#PWR51" H 9600 650 60  0001 C CNN
F 1 "VCC" H 9600 950 60  0000 C CNN
F 2 "" H 9600 800 60  0000 C CNN
F 3 "" H 9600 800 60  0000 C CNN
	1    9600 800 
	1    0    0    -1  
$EndComp
Wire Wire Line
	9600 800  9600 1100
$Comp
L R R15
U 1 1 54E4EC31
P 9200 2150
F 0 "R15" V 9280 2150 50  0000 C CNN
F 1 "301R" V 9207 2151 50  0000 C CNN
F 2 "" V 9130 2150 30  0000 C CNN
F 3 "" H 9200 2150 30  0000 C CNN
	1    9200 2150
	1    0    0    -1  
$EndComp
$Comp
L GND #PWR49
U 1 1 54E4ECAD
P 9200 2500
F 0 "#PWR49" H 9200 2250 60  0001 C CNN
F 1 "GND" H 9200 2350 60  0000 C CNN
F 2 "" H 9200 2500 60  0000 C CNN
F 3 "" H 9200 2500 60  0000 C CNN
	1    9200 2500
	1    0    0    -1  
$EndComp
Wire Wire Line
	9200 2400 9200 2500
Wire Wire Line
	9200 1900 9200 1300
Wire Wire Line
	8600 1300 8700 1300
Wire Wire Line
	8700 1300 9200 1300
Wire Wire Line
	9200 1300 9300 1300
$Comp
L npn Q3
U 1 1 54E4F8B2
P 9650 3900
F 0 "Q3" H 9650 3750 50  0000 R CNN
F 1 "npn" H 9650 4050 50  0000 R CNN
F 2 "" H 9650 3900 60  0000 C CNN
F 3 "" H 9650 3900 60  0000 C CNN
	1    9650 3900
	1    0    0    -1  
$EndComp
$Comp
L R R1
U 1 1 54E4F926
P 9750 3350
F 0 "R1" V 9830 3350 50  0000 C CNN
F 1 "R" V 9757 3351 50  0000 C CNN
F 2 "" V 9680 3350 30  0000 C CNN
F 3 "" H 9750 3350 30  0000 C CNN
	1    9750 3350
	1    0    0    -1  
$EndComp
$Comp
L +3V0 #PWR52
U 1 1 54E50261
P 9750 3000
F 0 "#PWR52" H 9750 2850 60  0001 C CNN
F 1 "+3V0" H 9750 3140 60  0000 C CNN
F 2 "" H 9750 3000 60  0000 C CNN
F 3 "" H 9750 3000 60  0000 C CNN
	1    9750 3000
	1    0    0    -1  
$EndComp
Wire Wire Line
	9750 3000 9750 3100
Wire Wire Line
	9750 3600 9750 3700
$Comp
L GND #PWR53
U 1 1 54E5043F
P 9750 4200
F 0 "#PWR53" H 9750 3950 60  0001 C CNN
F 1 "GND" H 9750 4050 60  0000 C CNN
F 2 "" H 9750 4200 60  0000 C CNN
F 3 "" H 9750 4200 60  0000 C CNN
	1    9750 4200
	1    0    0    -1  
$EndComp
Wire Wire Line
	9750 4100 9750 4200
$Comp
L R R3
U 1 1 54E50DB3
P 10100 3600
F 0 "R3" V 10180 3600 50  0000 C CNN
F 1 "R" V 10107 3601 50  0000 C CNN
F 2 "" V 10030 3600 30  0000 C CNN
F 3 "" H 10100 3600 30  0000 C CNN
	1    10100 3600
	0    1    1    0   
$EndComp
Wire Wire Line
	9750 3600 9850 3600
$Comp
L C C4
U 1 1 54E50E53
P 10450 3900
F 0 "C4" H 10500 4000 50  0000 L CNN
F 1 "C" H 10500 3800 50  0000 L CNN
F 2 "" H 10488 3750 30  0000 C CNN
F 3 "" H 10450 3900 60  0000 C CNN
	1    10450 3900
	1    0    0    -1  
$EndComp
$Comp
L GND #PWR54
U 1 1 54E50EDA
P 10450 4200
F 0 "#PWR54" H 10450 3950 60  0001 C CNN
F 1 "GND" H 10450 4050 60  0000 C CNN
F 2 "" H 10450 4200 60  0000 C CNN
F 3 "" H 10450 4200 60  0000 C CNN
	1    10450 4200
	1    0    0    -1  
$EndComp
Wire Wire Line
	10450 4200 10450 4100
Wire Wire Line
	10450 3700 10450 3600
Wire Wire Line
	10350 3600 10450 3600
Wire Wire Line
	10450 3600 10650 3600
Text GLabel 10650 3600 2    60   Output ~ 0
TXDMON
Connection ~ 10450 3600
$Comp
L R R12
U 1 1 54E51083
P 8950 3500
F 0 "R12" V 9030 3500 50  0000 C CNN
F 1 "4k99" V 8957 3501 50  0000 C CNN
F 2 "" V 8880 3500 30  0000 C CNN
F 3 "" H 8950 3500 30  0000 C CNN
	1    8950 3500
	0    1    1    0   
$EndComp
Wire Wire Line
	9200 3500 9250 3500
Wire Wire Line
	9250 3500 9450 3500
Wire Wire Line
	8700 1300 8700 1500
Wire Wire Line
	8700 1500 8700 1700
Wire Wire Line
	8700 1700 8700 1900
Wire Wire Line
	8700 1900 8700 2100
Wire Wire Line
	8700 2100 8700 3500
Connection ~ 9200 1300
$Comp
L R R18
U 1 1 54E51213
P 8350 1300
F 0 "R18" V 8430 1300 50  0000 C CNN
F 1 "9k76" V 8357 1301 50  0000 C CNN
F 2 "" V 8280 1300 30  0000 C CNN
F 3 "" H 8350 1300 30  0000 C CNN
	1    8350 1300
	0    1    1    0   
$EndComp
$Comp
L R R20
U 1 1 54E51291
P 8350 1500
F 0 "R20" V 8430 1500 50  0000 C CNN
F 1 "4k87" V 8357 1501 50  0000 C CNN
F 2 "" V 8280 1500 30  0000 C CNN
F 3 "" H 8350 1500 30  0000 C CNN
	1    8350 1500
	0    1    1    0   
$EndComp
$Comp
L R R11
U 1 1 54E512D8
P 8350 1700
F 0 "R11" V 8430 1700 50  0000 C CNN
F 1 "2k37" V 8357 1701 50  0000 C CNN
F 2 "" V 8280 1700 30  0000 C CNN
F 3 "" H 8350 1700 30  0000 C CNN
	1    8350 1700
	0    1    1    0   
$EndComp
$Comp
L R R13
U 1 1 54E51320
P 8350 1900
F 0 "R13" V 8430 1900 50  0000 C CNN
F 1 "1k18" V 8357 1901 50  0000 C CNN
F 2 "" V 8280 1900 30  0000 C CNN
F 3 "" H 8350 1900 30  0000 C CNN
	1    8350 1900
	0    1    1    0   
$EndComp
$Comp
L R R14
U 1 1 54E51361
P 8350 2100
F 0 "R14" V 8430 2100 50  0000 C CNN
F 1 "154R" V 8357 2101 50  0000 C CNN
F 2 "" V 8280 2100 30  0000 C CNN
F 3 "" H 8350 2100 30  0000 C CNN
	1    8350 2100
	0    1    1    0   
$EndComp
Connection ~ 8700 1300
Wire Wire Line
	8600 1500 8700 1500
Connection ~ 8700 1500
Wire Wire Line
	8600 1700 8700 1700
Connection ~ 8700 1700
Wire Wire Line
	8600 1900 8700 1900
Connection ~ 8700 1900
Wire Wire Line
	8600 2100 8700 2100
Connection ~ 8700 2100
Text GLabel 7900 1300 0    60   Input ~ 0
TXBIT0
Text GLabel 7900 1500 0    60   Input ~ 0
TXBIT1
Text GLabel 7900 1700 0    60   Input ~ 0
TXBIT2
Text GLabel 7900 1900 0    60   Input ~ 0
TXBIT3
Text GLabel 7900 2100 0    60   Input ~ 0
TXBIT4
Wire Wire Line
	7900 1300 8100 1300
Wire Wire Line
	7900 1500 8100 1500
Wire Wire Line
	7900 1700 8100 1700
Wire Wire Line
	7900 1900 8100 1900
Wire Wire Line
	7900 2100 8100 2100
Text Notes 950  4700 0    60   ~ 0
Opamp power
Connection ~ 5300 3750
Connection ~ 5300 1550
Text GLabel 5650 3750 2    60   Output ~ 0
RXFILT2
Text GLabel 5650 1550 2    60   Output ~ 0
RXFILT1
$Comp
L TEMD7100X01 D2
U 1 1 54E4A291
P 1650 1450
F 0 "D2" H 1650 1550 50  0000 C CNN
F 1 "TEMD7100X01" H 1650 1150 50  0000 C CNN
F 2 "" H 1650 1450 60  0000 C CNN
F 3 "" H 1650 1450 60  0000 C CNN
	1    1650 1450
	0    -1   -1   0   
$EndComp
Wire Wire Line
	2050 4400 2050 4550
Wire Wire Line
	2050 3200 2050 3300
$Comp
L GND #PWR42
U 1 1 54E3D955
P 2050 4550
F 0 "#PWR42" H 2050 4300 60  0001 C CNN
F 1 "GND" H 2050 4400 60  0000 C CNN
F 2 "" H 2050 4550 60  0000 C CNN
F 3 "" H 2050 4550 60  0000 C CNN
	1    2050 4550
	1    0    0    -1  
$EndComp
$Comp
L VCC #PWR41
U 1 1 54E3D941
P 2050 3200
F 0 "#PWR41" H 2050 3050 60  0001 C CNN
F 1 "VCC" H 2050 3350 60  0000 C CNN
F 2 "" H 2050 3200 60  0000 C CNN
F 3 "" H 2050 3200 60  0000 C CNN
	1    2050 3200
	1    0    0    -1  
$EndComp
Connection ~ 2050 3850
Wire Wire Line
	2350 3850 2050 3850
Wire Wire Line
	2050 3800 2050 3850
Wire Wire Line
	2050 3850 2050 3900
$Comp
L R R10
U 1 1 54E3D57A
P 2050 3550
F 0 "R10" V 2130 3550 50  0000 C CNN
F 1 "25k5" V 2057 3551 50  0000 C CNN
F 2 "" V 1980 3550 30  0000 C CNN
F 3 "" H 2050 3550 30  0000 C CNN
	1    2050 3550
	1    0    0    -1  
$EndComp
$Comp
L R R8
U 1 1 54E3D555
P 2050 4150
F 0 "R8" V 2130 4150 50  0000 C CNN
F 1 "25k5" V 2057 4151 50  0000 C CNN
F 2 "" V 1980 4150 30  0000 C CNN
F 3 "" H 2050 4150 30  0000 C CNN
	1    2050 4150
	1    0    0    -1  
$EndComp
Wire Wire Line
	2250 3650 2350 3650
Wire Wire Line
	2250 3350 2250 3650
Wire Wire Line
	3200 3350 2250 3350
Wire Wire Line
	3200 3750 3200 3350
Wire Wire Line
	3100 3750 3200 3750
Wire Wire Line
	1250 4300 1250 4350
Wire Wire Line
	1250 3500 1250 3550
$Comp
L GND #PWR36
U 1 1 54E3D2F6
P 1250 4350
F 0 "#PWR36" H 1250 4100 60  0001 C CNN
F 1 "GND" H 1250 4200 60  0000 C CNN
F 2 "" H 1250 4350 60  0000 C CNN
F 3 "" H 1250 4350 60  0000 C CNN
	1    1250 4350
	1    0    0    -1  
$EndComp
$Comp
L VCC #PWR35
U 1 1 54E3D2E2
P 1250 3500
F 0 "#PWR35" H 1250 3350 60  0001 C CNN
F 1 "VCC" H 1250 3650 60  0000 C CNN
F 2 "" H 1250 3500 60  0000 C CNN
F 3 "" H 1250 3500 60  0000 C CNN
	1    1250 3500
	1    0    0    -1  
$EndComp
Wire Wire Line
	1650 2300 1650 2350
Wire Wire Line
	1650 1150 1650 1250
$Comp
L VCC #PWR37
U 1 1 54E3BB52
P 1650 1150
F 0 "#PWR37" H 1650 1000 60  0001 C CNN
F 1 "VCC" H 1650 1300 60  0000 C CNN
F 2 "" H 1650 1150 60  0000 C CNN
F 3 "" H 1650 1150 60  0000 C CNN
	1    1650 1150
	1    0    0    -1  
$EndComp
$Comp
L GND #PWR38
U 1 1 54E3B06E
P 1650 2350
F 0 "#PWR38" H 1650 2100 60  0001 C CNN
F 1 "GND" H 1650 2200 60  0000 C CNN
F 2 "" H 1650 2350 60  0000 C CNN
F 3 "" H 1650 2350 60  0000 C CNN
	1    1650 2350
	1    0    0    -1  
$EndComp
Connection ~ 1650 1750
Wire Wire Line
	2350 1750 1650 1750
Wire Wire Line
	1650 1650 1650 1750
Wire Wire Line
	1650 1750 1650 1800
$Comp
L R R4
U 1 1 54E3AF61
P 1650 2050
F 0 "R4" V 1730 2050 50  0000 C CNN
F 1 "549k" V 1657 2051 50  0000 C CNN
F 2 "" V 1580 2050 30  0000 C CNN
F 3 "" H 1650 2050 30  0000 C CNN
	1    1650 2050
	1    0    0    -1  
$EndComp
Connection ~ 4150 1650
Wire Wire Line
	4150 3850 4150 1650
Wire Wire Line
	4400 3850 4150 3850
Wire Wire Line
	3900 4450 3900 4550
$Comp
L GND #PWR44
U 1 1 54E10708
P 3900 4550
F 0 "#PWR44" H 3900 4300 60  0001 C CNN
F 1 "GND" H 3900 4400 60  0000 C CNN
F 2 "" H 3900 4550 60  0000 C CNN
F 3 "" H 3900 4550 60  0000 C CNN
	1    3900 4550
	1    0    0    -1  
$EndComp
Connection ~ 3900 3650
$Comp
L R R7
U 1 1 54E1062A
P 3900 4200
F 0 "R7" V 3980 4200 50  0000 C CNN
F 1 "499R" V 3907 4201 50  0000 C CNN
F 2 "" V 3830 4200 30  0000 C CNN
F 3 "" H 3900 4200 30  0000 C CNN
	1    3900 4200
	1    0    0    -1  
$EndComp
Connection ~ 3900 3100
Wire Wire Line
	3900 2850 4450 2850
Wire Wire Line
	3900 3650 4400 3650
Wire Wire Line
	3900 2850 3900 3100
Wire Wire Line
	3900 3100 3900 3650
Wire Wire Line
	3900 3650 3900 3950
Wire Wire Line
	4400 3100 3900 3100
Connection ~ 5300 3100
Wire Wire Line
	4900 3100 5300 3100
Wire Wire Line
	5300 2850 4850 2850
Wire Wire Line
	5300 2850 5300 3100
Wire Wire Line
	5300 3100 5300 3750
Wire Wire Line
	5150 3750 5300 3750
Wire Wire Line
	5300 3750 5650 3750
$Comp
L C C6
U 1 1 54E10419
P 4650 2850
F 0 "C6" H 4700 2950 50  0000 L CNN
F 1 "68p" H 4700 2750 50  0000 L CNN
F 2 "" H 4688 2700 30  0000 C CNN
F 3 "" H 4650 2850 60  0000 C CNN
	1    4650 2850
	0    1    1    0   
$EndComp
$Comp
L R R9
U 1 1 54E10118
P 4650 3100
F 0 "R9" V 4730 3100 50  0000 C CNN
F 1 "280k" V 4657 3101 50  0000 C CNN
F 2 "" V 4580 3100 30  0000 C CNN
F 3 "" H 4650 3100 30  0000 C CNN
	1    4650 3100
	0    1    1    0   
$EndComp
Connection ~ 3200 1650
Wire Wire Line
	2250 1550 2350 1550
Wire Wire Line
	2250 1200 2250 1550
Wire Wire Line
	3200 1200 2250 1200
Wire Wire Line
	3200 1650 3200 1200
Wire Wire Line
	3100 1650 3200 1650
Wire Wire Line
	3200 1650 3350 1650
Connection ~ 4350 1650
$Comp
L C C2
U 1 1 54E0FD73
P 3550 1650
F 0 "C2" H 3600 1750 50  0000 L CNN
F 1 "1n" H 3600 1550 50  0000 L CNN
F 2 "" H 3588 1500 30  0000 C CNN
F 3 "" H 3550 1650 60  0000 C CNN
	1    3550 1650
	0    1    1    0   
$EndComp
Wire Wire Line
	3900 2250 3900 2350
$Comp
L GND #PWR43
U 1 1 54E0FAB7
P 3900 2350
F 0 "#PWR43" H 3900 2100 60  0001 C CNN
F 1 "GND" H 3900 2200 60  0000 C CNN
F 2 "" H 3900 2350 60  0000 C CNN
F 3 "" H 3900 2350 60  0000 C CNN
	1    3900 2350
	1    0    0    -1  
$EndComp
Connection ~ 3900 950 
Wire Wire Line
	4400 950  3900 950 
Connection ~ 3900 1450
Wire Wire Line
	4450 700  3900 700 
Wire Wire Line
	3900 700  3900 950 
Wire Wire Line
	3900 950  3900 1450
Wire Wire Line
	3900 1450 3900 1750
Wire Wire Line
	3900 1450 4400 1450
Connection ~ 5300 950 
Wire Wire Line
	4900 950  5300 950 
Wire Wire Line
	5300 700  4850 700 
Wire Wire Line
	5300 700  5300 950 
Wire Wire Line
	5300 950  5300 1550
Wire Wire Line
	5150 1550 5300 1550
Wire Wire Line
	5300 1550 5650 1550
Wire Wire Line
	4350 2250 4350 2350
Wire Wire Line
	3750 1650 4150 1650
Wire Wire Line
	4150 1650 4350 1650
Wire Wire Line
	4350 1650 4400 1650
Wire Wire Line
	4350 1650 4350 1750
$Comp
L C C5
U 1 1 54E0F9A8
P 4650 700
F 0 "C5" H 4700 800 50  0000 L CNN
F 1 "68p" H 4700 600 50  0000 L CNN
F 2 "" H 4688 550 30  0000 C CNN
F 3 "" H 4650 700 60  0000 C CNN
	1    4650 700 
	0    1    1    0   
$EndComp
$Comp
L R R5
U 1 1 54E0F930
P 4650 950
F 0 "R5" V 4730 950 50  0000 C CNN
F 1 "25k5" V 4657 951 50  0000 C CNN
F 2 "" V 4580 950 30  0000 C CNN
F 3 "" H 4650 950 30  0000 C CNN
	1    4650 950 
	0    1    1    0   
$EndComp
$Comp
L R R6
U 1 1 54E0F90C
P 3900 2000
F 0 "R6" V 3980 2000 50  0000 C CNN
F 1 "2k26" V 3907 2001 50  0000 C CNN
F 2 "" V 3830 2000 30  0000 C CNN
F 3 "" H 3900 2000 30  0000 C CNN
	1    3900 2000
	1    0    0    -1  
$EndComp
$Comp
L R R2
U 1 1 54E0F84B
P 4350 2000
F 0 "R2" V 4430 2000 50  0000 C CNN
F 1 "5k62" V 4357 2001 50  0000 C CNN
F 2 "" V 4280 2000 30  0000 C CNN
F 3 "" H 4350 2000 30  0000 C CNN
	1    4350 2000
	1    0    0    -1  
$EndComp
$Comp
L GND #PWR45
U 1 1 54E0F837
P 4350 2350
F 0 "#PWR45" H 4350 2100 60  0001 C CNN
F 1 "GND" H 4350 2200 60  0000 C CNN
F 2 "" H 4350 2350 60  0000 C CNN
F 3 "" H 4350 2350 60  0000 C CNN
	1    4350 2350
	1    0    0    -1  
$EndComp
$Comp
L phototr Q1
U 1 1 54E58752
P 1650 6100
F 0 "Q1" H 1650 5950 50  0000 R CNN
F 1 "phototr" H 1600 6050 50  0000 R CNN
F 2 "" H 1650 6100 60  0000 C CNN
F 3 "" H 1650 6100 60  0000 C CNN
	1    1650 6100
	1    0    0    -1  
$EndComp
$Comp
L VCC #PWR39
U 1 1 54E587C7
P 1750 5800
F 0 "#PWR39" H 1750 5650 60  0001 C CNN
F 1 "VCC" H 1750 5950 60  0000 C CNN
F 2 "" H 1750 5800 60  0000 C CNN
F 3 "" H 1750 5800 60  0000 C CNN
	1    1750 5800
	1    0    0    -1  
$EndComp
$Comp
L R R35
U 1 1 54E587FA
P 1750 6650
F 0 "R35" V 1830 6650 50  0000 C CNN
F 1 "25k5" V 1757 6651 50  0000 C CNN
F 2 "" V 1680 6650 30  0000 C CNN
F 3 "" H 1750 6650 30  0000 C CNN
	1    1750 6650
	1    0    0    -1  
$EndComp
$Comp
L GND #PWR40
U 1 1 54E5887C
P 1750 7000
F 0 "#PWR40" H 1750 6750 60  0001 C CNN
F 1 "GND" H 1750 6850 60  0000 C CNN
F 2 "" H 1750 7000 60  0000 C CNN
F 3 "" H 1750 7000 60  0000 C CNN
	1    1750 7000
	1    0    0    -1  
$EndComp
Wire Wire Line
	1750 6900 1750 7000
Text GLabel 2550 6350 2    60   Output ~ 0
AMB
Wire Wire Line
	1750 6300 1750 6350
Wire Wire Line
	1750 6350 1750 6400
Wire Wire Line
	1750 6350 2550 6350
Connection ~ 1750 6350
Text Notes 2200 5950 0    60   ~ 0
Ambient light sensor
Text Notes 2200 850  0    60   ~ 0
IR receiver
Text Notes 8150 850  0    60   ~ 0
IR transmitter
Wire Wire Line
	1750 5800 1750 5900
$Comp
L MAX4487 U5
U 1 1 54E7740E
P 4600 1050
F 0 "U5" H 4950 400 60  0000 C CNN
F 1 "MAX4487" H 5050 250 60  0000 C CNN
F 2 "" H 4600 1050 60  0000 C CNN
F 3 "" H 4600 1050 60  0000 C CNN
	1    4600 1050
	1    0    0    -1  
$EndComp
$Comp
L MAX4487 U5
U 4 1 54E774BE
P 2550 1150
F 0 "U5" H 2900 500 60  0000 C CNN
F 1 "MAX4487" H 3000 350 60  0000 C CNN
F 2 "" H 2550 1150 60  0000 C CNN
F 3 "" H 2550 1150 60  0000 C CNN
	4    2550 1150
	1    0    0    -1  
$EndComp
$Comp
L MAX4487 U5
U 3 1 54E774F7
P 2550 3250
F 0 "U5" H 2900 2600 60  0000 C CNN
F 1 "MAX4487" H 3000 2450 60  0000 C CNN
F 2 "" H 2550 3250 60  0000 C CNN
F 3 "" H 2550 3250 60  0000 C CNN
	3    2550 3250
	1    0    0    -1  
$EndComp
$Comp
L MAX4487 U5
U 2 1 54E77530
P 4600 3250
F 0 "U5" H 4950 2600 60  0000 C CNN
F 1 "MAX4487" H 5050 2450 60  0000 C CNN
F 2 "" H 4600 3250 60  0000 C CNN
F 3 "" H 4600 3250 60  0000 C CNN
	2    4600 3250
	1    0    0    -1  
$EndComp
$Comp
L MAX4487 U5
U 5 1 54E7757F
P 1150 3200
F 0 "U5" H 1500 2550 60  0000 C CNN
F 1 "MAX4487" H 1600 2400 60  0000 C CNN
F 2 "" H 1150 3200 60  0000 C CNN
F 3 "" H 1150 3200 60  0000 C CNN
	5    1150 3200
	1    0    0    -1  
$EndComp
$Comp
L npn Q5
U 1 1 54E79560
P 8700 5250
F 0 "Q5" H 8700 5100 50  0000 R CNN
F 1 "npn" H 8700 5400 50  0000 R CNN
F 2 "" H 8700 5250 60  0000 C CNN
F 3 "" H 8700 5250 60  0000 C CNN
	1    8700 5250
	1    0    0    -1  
$EndComp
$Comp
L VMOTOR #PWR47
U 1 1 54E796B4
P 8800 4950
F 0 "#PWR47" H 8800 4800 60  0001 C CNN
F 1 "VMOTOR" H 8800 5090 60  0000 C CNN
F 2 "" H 8800 4950 60  0000 C CNN
F 3 "" H 8800 4950 60  0000 C CNN
	1    8800 4950
	1    0    0    -1  
$EndComp
Wire Wire Line
	8800 4950 8800 5050
$Comp
L Motor M2
U 1 1 54E79AF7
P 8800 5600
F 0 "M2" H 8900 5200 60  0000 C CNN
F 1 "Motor" H 8950 5500 60  0000 C CNN
F 2 "" H 8800 5600 60  0000 C CNN
F 3 "" H 8800 5600 60  0000 C CNN
	1    8800 5600
	1    0    0    -1  
$EndComp
$Comp
L GND #PWR48
U 1 1 54E79B1A
P 8800 6300
F 0 "#PWR48" H 8800 6050 60  0001 C CNN
F 1 "GND" H 8800 6150 60  0000 C CNN
F 2 "" H 8800 6300 60  0000 C CNN
F 3 "" H 8800 6300 60  0000 C CNN
	1    8800 6300
	1    0    0    -1  
$EndComp
$Comp
L R R24
U 1 1 54E79B51
P 8150 5250
F 0 "R24" V 8230 5250 50  0000 C CNN
F 1 "200R" V 8157 5251 50  0000 C CNN
F 2 "" V 8080 5250 30  0000 C CNN
F 3 "" H 8150 5250 30  0000 C CNN
	1    8150 5250
	0    1    1    0   
$EndComp
Wire Wire Line
	8800 5450 8800 5550
Wire Wire Line
	8800 6150 8800 6300
Wire Wire Line
	8400 5250 8500 5250
$Comp
L npn Q6
U 1 1 54E7A103
P 10450 5250
F 0 "Q6" H 10450 5100 50  0000 R CNN
F 1 "npn" H 10450 5400 50  0000 R CNN
F 2 "" H 10450 5250 60  0000 C CNN
F 3 "" H 10450 5250 60  0000 C CNN
	1    10450 5250
	1    0    0    -1  
$EndComp
$Comp
L VMOTOR #PWR55
U 1 1 54E7A109
P 10550 4950
F 0 "#PWR55" H 10550 4800 60  0001 C CNN
F 1 "VMOTOR" H 10550 5090 60  0000 C CNN
F 2 "" H 10550 4950 60  0000 C CNN
F 3 "" H 10550 4950 60  0000 C CNN
	1    10550 4950
	1    0    0    -1  
$EndComp
Wire Wire Line
	10550 4950 10550 5050
$Comp
L Motor M1
U 1 1 54E7A110
P 10550 5600
F 0 "M1" H 10650 5200 60  0000 C CNN
F 1 "Motor" H 10700 5500 60  0000 C CNN
F 2 "" H 10550 5600 60  0000 C CNN
F 3 "" H 10550 5600 60  0000 C CNN
	1    10550 5600
	1    0    0    -1  
$EndComp
$Comp
L GND #PWR56
U 1 1 54E7A116
P 10550 6300
F 0 "#PWR56" H 10550 6050 60  0001 C CNN
F 1 "GND" H 10550 6150 60  0000 C CNN
F 2 "" H 10550 6300 60  0000 C CNN
F 3 "" H 10550 6300 60  0000 C CNN
	1    10550 6300
	1    0    0    -1  
$EndComp
$Comp
L R R17
U 1 1 54E7A11C
P 9900 5250
F 0 "R17" V 9980 5250 50  0000 C CNN
F 1 "200R" V 9907 5251 50  0000 C CNN
F 2 "" V 9830 5250 30  0000 C CNN
F 3 "" H 9900 5250 30  0000 C CNN
	1    9900 5250
	0    1    1    0   
$EndComp
Wire Wire Line
	10550 5450 10550 5550
Wire Wire Line
	10550 6150 10550 6300
Wire Wire Line
	10150 5250 10250 5250
Text GLabel 9550 5250 0    60   Input ~ 0
CTRLM1
Text GLabel 7800 5250 0    60   Input ~ 0
CTRLM2
Wire Wire Line
	7800 5250 7900 5250
Wire Wire Line
	9550 5250 9650 5250
Text Notes 7400 4800 0    60   ~ 0
Movement motors
$Comp
L LED_RABG D4
U 1 1 54E7B1BC
P 6050 5850
F 0 "D4" H 5975 6200 50  0000 C CNN
F 1 "LED_RABG" H 6025 5500 50  0000 C CNN
F 2 "" H 6100 5800 50  0000 C CNN
F 3 "" H 6100 5800 50  0000 C CNN
	1    6050 5850
	0    1    1    0   
$EndComp
$Comp
L +3V0 #PWR46
U 1 1 54E7B511
P 6050 5450
F 0 "#PWR46" H 6050 5300 60  0001 C CNN
F 1 "+3V0" H 6050 5590 60  0000 C CNN
F 2 "" H 6050 5450 60  0000 C CNN
F 3 "" H 6050 5450 60  0000 C CNN
	1    6050 5450
	1    0    0    -1  
$EndComp
Wire Wire Line
	6050 5450 6050 5550
$Comp
L R R25
U 1 1 54E7B5E6
P 5250 6200
F 0 "R25" V 5330 6200 50  0000 C CNN
F 1 "R" V 5257 6201 50  0000 C CNN
F 2 "" V 5180 6200 30  0000 C CNN
F 3 "" H 5250 6200 30  0000 C CNN
	1    5250 6200
	0    1    1    0   
$EndComp
$Comp
L R R26
U 1 1 54E7B656
P 5250 6350
F 0 "R26" V 5330 6350 50  0000 C CNN
F 1 "R" V 5257 6351 50  0000 C CNN
F 2 "" V 5180 6350 30  0000 C CNN
F 3 "" H 5250 6350 30  0000 C CNN
	1    5250 6350
	0    1    1    0   
$EndComp
$Comp
L R R27
U 1 1 54E7B698
P 5250 6500
F 0 "R27" V 5330 6500 50  0000 C CNN
F 1 "R" V 5257 6501 50  0000 C CNN
F 2 "" V 5180 6500 30  0000 C CNN
F 3 "" H 5250 6500 30  0000 C CNN
	1    5250 6500
	0    1    1    0   
$EndComp
$Comp
L R R28
U 1 1 54E7B6DF
P 5250 6650
F 0 "R28" V 5330 6650 50  0000 C CNN
F 1 "R" V 5257 6651 50  0000 C CNN
F 2 "" V 5180 6650 30  0000 C CNN
F 3 "" H 5250 6650 30  0000 C CNN
	1    5250 6650
	0    1    1    0   
$EndComp
$Comp
L R R29
U 1 1 54E7B723
P 5250 6800
F 0 "R29" V 5330 6800 50  0000 C CNN
F 1 "R" V 5257 6801 50  0000 C CNN
F 2 "" V 5180 6800 30  0000 C CNN
F 3 "" H 5250 6800 30  0000 C CNN
	1    5250 6800
	0    1    1    0   
$EndComp
$Comp
L R R30
U 1 1 54E7B768
P 5250 6950
F 0 "R30" V 5330 6950 50  0000 C CNN
F 1 "R" V 5257 6951 50  0000 C CNN
F 2 "" V 5180 6950 30  0000 C CNN
F 3 "" H 5250 6950 30  0000 C CNN
	1    5250 6950
	0    1    1    0   
$EndComp
Wire Wire Line
	5500 6200 5850 6200
Wire Wire Line
	5850 6150 5850 6200
Wire Wire Line
	5850 6200 5850 6350
Wire Wire Line
	5850 6350 5500 6350
Connection ~ 5850 6200
Wire Wire Line
	5500 6500 6050 6500
Wire Wire Line
	6050 6150 6050 6500
Wire Wire Line
	6050 6500 6050 6650
Wire Wire Line
	6050 6650 5500 6650
Connection ~ 6050 6500
Wire Wire Line
	5500 6800 6250 6800
Wire Wire Line
	6250 6150 6250 6800
Wire Wire Line
	6250 6800 6250 6950
Wire Wire Line
	6250 6950 5500 6950
Connection ~ 6250 6800
Text GLabel 4700 6200 0    60   Input ~ 0
BLUELO
Text GLabel 4700 6350 0    60   Input ~ 0
BLUEHI
Text GLabel 4700 6500 0    60   Input ~ 0
GREENLO
Text GLabel 4700 6650 0    60   Input ~ 0
GREENHI
Text GLabel 4700 6800 0    60   Input ~ 0
REDLO
Text GLabel 4700 6950 0    60   Input ~ 0
REDHI
Wire Wire Line
	4700 6200 5000 6200
Wire Wire Line
	4700 6350 5000 6350
Wire Wire Line
	4700 6500 5000 6500
Wire Wire Line
	4700 6650 5000 6650
Wire Wire Line
	4700 6800 5000 6800
Wire Wire Line
	4700 6950 5000 6950
Text Notes 4550 5900 0    60   ~ 0
Multicolour LED
$Comp
L R R23
U 1 1 54E83BA2
P 9250 3850
F 0 "R23" V 9330 3850 50  0000 C CNN
F 1 "R" V 9257 3851 50  0000 C CNN
F 2 "" V 9180 3850 30  0000 C CNN
F 3 "" H 9250 3850 30  0000 C CNN
	1    9250 3850
	1    0    0    -1  
$EndComp
$Comp
L GND #PWR50
U 1 1 54E83BFA
P 9250 4200
F 0 "#PWR50" H 9250 3950 60  0001 C CNN
F 1 "GND" H 9250 4050 60  0000 C CNN
F 2 "" H 9250 4200 60  0000 C CNN
F 3 "" H 9250 4200 60  0000 C CNN
	1    9250 4200
	1    0    0    -1  
$EndComp
Wire Wire Line
	9250 4200 9250 4100
Wire Wire Line
	9250 3600 9250 3500
Connection ~ 9250 3500
Wire Wire Line
	9450 3500 9450 3900
$EndSCHEMATC
