EESchema Schematic File Version 2
LIBS:device
LIBS:transistors
LIBS:conn
LIBS:linear
LIBS:regul
LIBS:74xx
LIBS:cmos4000
LIBS:adc-dac
LIBS:memory
LIBS:xilinx
LIBS:special
LIBS:microcontrollers
LIBS:dsp
LIBS:microchip
LIBS:analog_switches
LIBS:motorola
LIBS:texas
LIBS:intel
LIBS:audio
LIBS:interface
LIBS:digital-audio
LIBS:philips
LIBS:display
LIBS:cypress
LIBS:siliconi
LIBS:opto
LIBS:atmel
LIBS:contrib
LIBS:valves
LIBS:mycomponents
LIBS:power
LIBS:kbboard-cache
EELAYER 25 0
EELAYER END
$Descr A4 11693 8268
encoding utf-8
Sheet 4 4
Title ""
Date ""
Rev ""
Comp ""
Comment1 ""
Comment2 ""
Comment3 ""
Comment4 ""
$EndDescr
Connection ~ 3600 4600
Wire Wire Line
	3950 4500 3600 4500
Connection ~ 3600 4700
Wire Wire Line
	3950 4600 3600 4600
Wire Wire Line
	3600 4500 3600 4600
Wire Wire Line
	3600 4600 3600 4700
Wire Wire Line
	3600 4700 3600 4900
Wire Wire Line
	3600 4700 3950 4700
$Comp
L GND #PWR61
U 1 1 54E55CFD
P 3600 4900
F 0 "#PWR61" H 3600 4650 60  0001 C CNN
F 1 "GND" H 3600 4750 60  0000 C CNN
F 2 "" H 3600 4900 60  0000 C CNN
F 3 "" H 3600 4900 60  0000 C CNN
	1    3600 4900
	1    0    0    -1  
$EndComp
$Comp
L ATMEGA328-A IC1
U 1 1 54E55D03
P 4850 3500
F 0 "IC1" H 4100 4750 40  0000 L BNN
F 1 "ATMEGA328-A" H 5250 2100 40  0000 L BNN
F 2 "TQFP32" H 4850 3500 30  0000 C CIN
F 3 "" H 4850 3500 60  0000 C CNN
	1    4850 3500
	1    0    0    -1  
$EndComp
$Comp
L +3V0 #PWR60
U 1 1 54E7AA63
P 3600 2100
F 0 "#PWR60" H 3600 1950 60  0001 C CNN
F 1 "+3V0" H 3600 2240 60  0000 C CNN
F 2 "" H 3600 2100 60  0000 C CNN
F 3 "" H 3600 2100 60  0000 C CNN
	1    3600 2100
	1    0    0    -1  
$EndComp
Wire Wire Line
	3950 2400 3600 2400
Wire Wire Line
	3600 2100 3600 2400
Wire Wire Line
	3600 2400 3600 2500
Wire Wire Line
	3600 2500 3950 2500
Connection ~ 3600 2400
$Comp
L AVDD #PWR59
U 1 1 54E7AB11
P 2950 2100
F 0 "#PWR59" H 2950 1950 60  0001 C CNN
F 1 "AVDD" H 2950 2240 60  0000 C CNN
F 2 "" H 2950 2100 60  0000 C CNN
F 3 "" H 2950 2100 60  0000 C CNN
	1    2950 2100
	1    0    0    -1  
$EndComp
Wire Wire Line
	3950 2700 2950 2700
Wire Wire Line
	2950 2100 2950 2700
Wire Wire Line
	2950 2700 2950 3000
Wire Wire Line
	2950 3000 3950 3000
Connection ~ 2950 2700
Text GLabel 3400 3850 0    60   Input ~ 0
AMB
Wire Wire Line
	3400 3850 3950 3850
Text GLabel 3400 3750 0    60   Input ~ 0
BSENSE
Wire Wire Line
	3400 3750 3950 3750
$Comp
L CONN_02X03 P4
U 1 1 54E7ABD6
P 7950 2000
F 0 "P4" H 7950 2200 50  0000 C CNN
F 1 "CONN_02X03" H 7950 1800 50  0000 C CNN
F 2 "" H 7950 800 60  0000 C CNN
F 3 "" H 7950 800 60  0000 C CNN
	1    7950 2000
	1    0    0    -1  
$EndComp
Text GLabel 8000 3850 2    60   Input ~ 0
TXDMON
Wire Wire Line
	5850 3850 7400 3850
Wire Wire Line
	7400 3850 8000 3850
Wire Wire Line
	7700 1900 7400 1900
Wire Wire Line
	7400 1900 7400 3850
Connection ~ 7400 3850
Wire Wire Line
	5850 2900 8400 2900
Wire Wire Line
	8400 2900 8400 1900
Wire Wire Line
	8400 1900 8200 1900
Wire Wire Line
	5850 2800 7500 2800
Wire Wire Line
	7500 2800 7500 2000
Wire Wire Line
	7500 2000 7700 2000
$Comp
L +3V0 #PWR63
U 1 1 54E7AD31
P 8300 1750
F 0 "#PWR63" H 8300 1600 60  0001 C CNN
F 1 "+3V0" H 8300 1890 60  0000 C CNN
F 2 "" H 8300 1750 60  0000 C CNN
F 3 "" H 8300 1750 60  0000 C CNN
	1    8300 1750
	1    0    0    -1  
$EndComp
Wire Wire Line
	8300 1750 8300 2000
Wire Wire Line
	8300 2000 8200 2000
Wire Wire Line
	5850 2700 6500 2700
Wire Wire Line
	6500 2700 6600 2700
Wire Wire Line
	6500 2700 6500 2100
Wire Wire Line
	6500 2100 7700 2100
$Comp
L GND #PWR64
U 1 1 54E7ADE9
P 8300 2300
F 0 "#PWR64" H 8300 2050 60  0001 C CNN
F 1 "GND" H 8300 2150 60  0000 C CNN
F 2 "" H 8300 2300 60  0000 C CNN
F 3 "" H 8300 2300 60  0000 C CNN
	1    8300 2300
	1    0    0    -1  
$EndComp
Wire Wire Line
	8200 2100 8300 2100
Wire Wire Line
	8300 2100 8300 2300
Text Notes 7550 1700 0    60   ~ 0
Programming \nconnector
$Comp
L CONN_01X02 P3
U 1 1 54E7AE6C
P 7900 4150
F 0 "P3" H 7900 4300 50  0000 C CNN
F 1 "CONN_01X02" V 8000 4150 50  0000 C CNN
F 2 "" H 7900 4150 60  0000 C CNN
F 3 "" H 7900 4150 60  0000 C CNN
	1    7900 4150
	1    0    0    -1  
$EndComp
Wire Wire Line
	5850 4100 7700 4100
$Comp
L GND #PWR62
U 1 1 54E7AEFC
P 7600 4350
F 0 "#PWR62" H 7600 4100 60  0001 C CNN
F 1 "GND" H 7600 4200 60  0000 C CNN
F 2 "" H 7600 4350 60  0000 C CNN
F 3 "" H 7600 4350 60  0000 C CNN
	1    7600 4350
	1    0    0    -1  
$EndComp
Wire Wire Line
	7700 4200 7600 4200
Wire Wire Line
	7600 4200 7600 4350
Text Notes 7800 4550 0    60   ~ 0
Debug\nconnector
Text GLabel 6600 3650 2    60   Output ~ 0
BLUELO
Text GLabel 6600 3750 2    60   Output ~ 0
BLUEHI
Wire Wire Line
	5850 3650 6600 3650
Wire Wire Line
	5850 3750 6600 3750
Text GLabel 6600 3450 2    60   Output ~ 0
GREENLO
Text GLabel 6600 3550 2    60   Output ~ 0
GREENHI
Wire Wire Line
	5850 3550 6600 3550
Wire Wire Line
	5850 3450 6600 3450
Text GLabel 6600 4400 2    60   Output ~ 0
REDLO
Text GLabel 6600 4500 2    60   Output ~ 0
REDHI
Wire Wire Line
	5850 4400 6600 4400
Wire Wire Line
	5850 4500 6600 4500
Text GLabel 6600 4700 2    60   Input ~ 0
VCCSENSE
Wire Wire Line
	6600 4700 5850 4700
Text GLabel 6600 2700 2    60   Output ~ 0
CTRLM1
Connection ~ 6500 2700
Text GLabel 6600 4300 2    60   Output ~ 0
CTRLM2
Wire Wire Line
	5850 4300 6600 4300
Text GLabel 6600 4200 2    60   Output ~ 0
PWREN
Wire Wire Line
	5850 4200 6600 4200
Text GLabel 6600 2400 2    60   Output ~ 0
TXBIT4
Wire Wire Line
	5850 2400 6600 2400
Text GLabel 6600 2500 2    60   Output ~ 0
TXBIT3
Wire Wire Line
	5850 2500 6600 2500
Text GLabel 6600 2600 2    60   Output ~ 0
TXBIT2
Wire Wire Line
	5850 2600 6600 2600
Text GLabel 6600 3000 2    60   Output ~ 0
TXBIT1
Wire Wire Line
	6600 3000 5850 3000
Text GLabel 6600 3100 2    60   Output ~ 0
TXBIT0
Wire Wire Line
	5850 3100 6600 3100
Text GLabel 6600 3250 2    60   Input ~ 0
RXFILT2
Wire Wire Line
	5850 3250 6000 3250
Wire Wire Line
	6000 3250 6600 3250
Wire Wire Line
	5850 4600 6000 4600
Wire Wire Line
	6000 4600 6000 3250
Connection ~ 6000 3250
Text GLabel 6600 3350 2    60   Input ~ 0
RXFILT1
Wire Wire Line
	5850 3350 6600 3350
Text GLabel 6600 4000 2    60   Input ~ 0
CSTATE
Wire Wire Line
	6600 4000 5850 4000
$EndSCHEMATC
