EESchema Schematic File Version 2
LIBS:device
LIBS:transistors
LIBS:conn
LIBS:linear
LIBS:regul
LIBS:74xx
LIBS:cmos4000
LIBS:adc-dac
LIBS:memory
LIBS:xilinx
LIBS:special
LIBS:microcontrollers
LIBS:dsp
LIBS:microchip
LIBS:analog_switches
LIBS:motorola
LIBS:texas
LIBS:intel
LIBS:audio
LIBS:interface
LIBS:digital-audio
LIBS:philips
LIBS:display
LIBS:cypress
LIBS:siliconi
LIBS:opto
LIBS:atmel
LIBS:contrib
LIBS:valves
LIBS:mycomponents
LIBS:power
LIBS:kbboard-cache
EELAYER 25 0
EELAYER END
$Descr A4 11693 8268
encoding utf-8
Sheet 3 3
Title ""
Date ""
Rev ""
Comp ""
Comment1 ""
Comment2 ""
Comment3 ""
Comment4 ""
$EndDescr
$Comp
L ATMEGA328-A IC?
U 1 1 54E0F38B
P 5550 6200
F 0 "IC?" H 4800 7450 40  0000 L BNN
F 1 "ATMEGA328-A" H 5950 4800 40  0000 L BNN
F 2 "TQFP32" H 5550 6200 30  0000 C CIN
F 3 "" H 5550 6200 60  0000 C CNN
	1    5550 6200
	1    0    0    -1  
$EndComp
$Comp
L GND #PWR?
U 1 1 54E0F392
P 4300 7600
F 0 "#PWR?" H 4300 7350 60  0001 C CNN
F 1 "GND" H 4300 7450 60  0000 C CNN
F 2 "" H 4300 7600 60  0000 C CNN
F 3 "" H 4300 7600 60  0000 C CNN
	1    4300 7600
	1    0    0    -1  
$EndComp
$Comp
L MAX4487 U?
U 1 1 54E0F789
P 5050 1300
F 0 "U?" H 5400 650 60  0000 C CNN
F 1 "MAX4487" H 5500 500 60  0001 C CNN
F 2 "" H 5050 1300 60  0000 C CNN
F 3 "" H 5050 1300 60  0000 C CNN
	1    5050 1300
	1    0    0    -1  
$EndComp
$Comp
L GND #PWR?
U 1 1 54E0F837
P 4800 2600
F 0 "#PWR?" H 4800 2350 60  0001 C CNN
F 1 "GND" H 4800 2450 60  0000 C CNN
F 2 "" H 4800 2600 60  0000 C CNN
F 3 "" H 4800 2600 60  0000 C CNN
	1    4800 2600
	1    0    0    -1  
$EndComp
$Comp
L R R2
U 1 1 54E0F84B
P 4800 2250
F 0 "R2" V 4880 2250 50  0000 C CNN
F 1 "5k62" V 4807 2251 50  0000 C CNN
F 2 "" V 4730 2250 30  0000 C CNN
F 3 "" H 4800 2250 30  0000 C CNN
	1    4800 2250
	1    0    0    -1  
$EndComp
$Comp
L R R6
U 1 1 54E0F90C
P 4350 2250
F 0 "R6" V 4430 2250 50  0000 C CNN
F 1 "2k26" V 4357 2251 50  0000 C CNN
F 2 "" V 4280 2250 30  0000 C CNN
F 3 "" H 4350 2250 30  0000 C CNN
	1    4350 2250
	1    0    0    -1  
$EndComp
$Comp
L R R5
U 1 1 54E0F930
P 5100 1200
F 0 "R5" V 5180 1200 50  0000 C CNN
F 1 "25k5" V 5107 1201 50  0000 C CNN
F 2 "" V 5030 1200 30  0000 C CNN
F 3 "" H 5100 1200 30  0000 C CNN
	1    5100 1200
	0    1    1    0   
$EndComp
$Comp
L C C5
U 1 1 54E0F9A8
P 5100 950
F 0 "C5" H 5150 1050 50  0000 L CNN
F 1 "68p" H 5150 850 50  0000 L CNN
F 2 "" H 5138 800 30  0000 C CNN
F 3 "" H 5100 950 60  0000 C CNN
	1    5100 950 
	0    1    1    0   
$EndComp
Wire Wire Line
	4300 7400 4650 7400
Wire Wire Line
	4300 7200 4300 7600
Wire Wire Line
	4650 7300 4300 7300
Connection ~ 4300 7400
Wire Wire Line
	4650 7200 4300 7200
Connection ~ 4300 7300
Wire Wire Line
	4800 1900 4800 2000
Wire Wire Line
	4200 1900 4850 1900
Wire Wire Line
	4800 2500 4800 2600
Wire Wire Line
	5600 1800 6100 1800
Wire Wire Line
	5750 950  5750 1800
Wire Wire Line
	5750 950  5300 950 
Wire Wire Line
	5350 1200 5750 1200
Connection ~ 5750 1200
Wire Wire Line
	4350 1700 4850 1700
Wire Wire Line
	4350 950  4350 2000
Wire Wire Line
	4900 950  4350 950 
Connection ~ 4350 1700
Wire Wire Line
	4850 1200 4350 1200
Connection ~ 4350 1200
$Comp
L GND #PWR?
U 1 1 54E0FAB7
P 4350 2600
F 0 "#PWR?" H 4350 2350 60  0001 C CNN
F 1 "GND" H 4350 2450 60  0000 C CNN
F 2 "" H 4350 2600 60  0000 C CNN
F 3 "" H 4350 2600 60  0000 C CNN
	1    4350 2600
	1    0    0    -1  
$EndComp
Wire Wire Line
	4350 2500 4350 2600
$Comp
L MAX4487 U?
U 4 1 54E0FBC4
P 3000 1400
F 0 "U?" H 3350 750 60  0000 C CNN
F 1 "MAX4487" H 3200 1450 60  0001 C CNN
F 2 "" H 3000 1400 60  0000 C CNN
F 3 "" H 3000 1400 60  0000 C CNN
	4    3000 1400
	1    0    0    -1  
$EndComp
$Comp
L C C2
U 1 1 54E0FD73
P 4000 1900
F 0 "C2" H 4050 2000 50  0000 L CNN
F 1 "1n" H 4050 1800 50  0000 L CNN
F 2 "" H 4038 1750 30  0000 C CNN
F 3 "" H 4000 1900 60  0000 C CNN
	1    4000 1900
	0    1    1    0   
$EndComp
Connection ~ 4800 1900
Wire Wire Line
	3550 1900 3800 1900
Wire Wire Line
	3650 1900 3650 1450
Wire Wire Line
	3650 1450 2700 1450
Wire Wire Line
	2700 1450 2700 1800
Wire Wire Line
	2700 1800 2800 1800
Connection ~ 3650 1900
$Comp
L MAX4487 U?
U 2 1 54E100B1
P 5050 3500
F 0 "U?" H 5400 2850 60  0000 C CNN
F 1 "MAX4487" H 5600 2450 60  0001 C CNN
F 2 "" H 5050 3500 60  0000 C CNN
F 3 "" H 5050 3500 60  0000 C CNN
	2    5050 3500
	1    0    0    -1  
$EndComp
$Comp
L R R9
U 1 1 54E10118
P 5100 3350
F 0 "R9" V 5180 3350 50  0000 C CNN
F 1 "280k" V 5107 3351 50  0000 C CNN
F 2 "" V 5030 3350 30  0000 C CNN
F 3 "" H 5100 3350 30  0000 C CNN
	1    5100 3350
	0    1    1    0   
$EndComp
$Comp
L C C6
U 1 1 54E10419
P 5100 3100
F 0 "C6" H 5150 3200 50  0000 L CNN
F 1 "68p" H 5150 3000 50  0000 L CNN
F 2 "" H 5138 2950 30  0000 C CNN
F 3 "" H 5100 3100 60  0000 C CNN
	1    5100 3100
	0    1    1    0   
$EndComp
Wire Wire Line
	5600 4000 6100 4000
Wire Wire Line
	5750 3100 5750 4000
Wire Wire Line
	5750 3100 5300 3100
Wire Wire Line
	5350 3350 5750 3350
Connection ~ 5750 3350
Wire Wire Line
	4850 3350 4350 3350
Wire Wire Line
	4350 3100 4350 4200
Wire Wire Line
	4350 3900 4850 3900
Wire Wire Line
	4350 3100 4900 3100
Connection ~ 4350 3350
$Comp
L R R7
U 1 1 54E1062A
P 4350 4450
F 0 "R7" V 4430 4450 50  0000 C CNN
F 1 "499R" V 4357 4451 50  0000 C CNN
F 2 "" V 4280 4450 30  0000 C CNN
F 3 "" H 4350 4450 30  0000 C CNN
	1    4350 4450
	1    0    0    -1  
$EndComp
Connection ~ 4350 3900
$Comp
L GND #PWR?
U 1 1 54E10708
P 4350 4800
F 0 "#PWR?" H 4350 4550 60  0001 C CNN
F 1 "GND" H 4350 4650 60  0000 C CNN
F 2 "" H 4350 4800 60  0000 C CNN
F 3 "" H 4350 4800 60  0000 C CNN
	1    4350 4800
	1    0    0    -1  
$EndComp
Wire Wire Line
	4350 4700 4350 4800
Wire Wire Line
	4850 4100 4600 4100
Wire Wire Line
	4600 4100 4600 1900
Connection ~ 4600 1900
$Comp
L R R4
U 1 1 54E3AF61
P 2100 2300
F 0 "R4" V 2180 2300 50  0000 C CNN
F 1 "549k" V 2107 2301 50  0000 C CNN
F 2 "" V 2030 2300 30  0000 C CNN
F 3 "" H 2100 2300 30  0000 C CNN
	1    2100 2300
	1    0    0    -1  
$EndComp
Wire Wire Line
	2100 1900 2100 2050
Wire Wire Line
	2800 2000 2100 2000
Connection ~ 2100 2000
$Comp
L GND #PWR?
U 1 1 54E3B06E
P 2100 2600
F 0 "#PWR?" H 2100 2350 60  0001 C CNN
F 1 "GND" H 2100 2450 60  0000 C CNN
F 2 "" H 2100 2600 60  0000 C CNN
F 3 "" H 2100 2600 60  0000 C CNN
	1    2100 2600
	1    0    0    -1  
$EndComp
$Comp
L VCC #PWR?
U 1 1 54E3BB52
P 2100 1400
F 0 "#PWR?" H 2100 1250 60  0001 C CNN
F 1 "VCC" H 2100 1550 60  0000 C CNN
F 2 "" H 2100 1400 60  0000 C CNN
F 3 "" H 2100 1400 60  0000 C CNN
	1    2100 1400
	1    0    0    -1  
$EndComp
Wire Wire Line
	2100 1400 2100 1500
Wire Wire Line
	2100 2550 2100 2600
$Comp
L MAX4487 U?
U 5 1 54E3C5E7
P 1450 3550
F 0 "U?" H 1250 2950 60  0001 C CNN
F 1 "MAX4487" H 1400 3100 60  0000 C CNN
F 2 "" H 1450 3550 60  0000 C CNN
F 3 "" H 1450 3550 60  0000 C CNN
	5    1450 3550
	1    0    0    -1  
$EndComp
$Comp
L VCC #PWR?
U 1 1 54E3D2E2
P 1700 3750
F 0 "#PWR?" H 1700 3600 60  0001 C CNN
F 1 "VCC" H 1700 3900 60  0000 C CNN
F 2 "" H 1700 3750 60  0000 C CNN
F 3 "" H 1700 3750 60  0000 C CNN
	1    1700 3750
	1    0    0    -1  
$EndComp
$Comp
L GND #PWR?
U 1 1 54E3D2F6
P 1700 4600
F 0 "#PWR?" H 1700 4350 60  0001 C CNN
F 1 "GND" H 1700 4450 60  0000 C CNN
F 2 "" H 1700 4600 60  0000 C CNN
F 3 "" H 1700 4600 60  0000 C CNN
	1    1700 4600
	1    0    0    -1  
$EndComp
Wire Wire Line
	1700 3750 1700 3800
Wire Wire Line
	1700 4550 1700 4600
$Comp
L MAX4487 U?
U 3 1 54E3D411
P 3000 3500
F 0 "U?" H 3050 2900 60  0000 C CNN
F 1 "MAX4487" H 3100 3250 60  0000 C CNN
F 2 "" H 3000 3500 60  0000 C CNN
F 3 "" H 3000 3500 60  0000 C CNN
	3    3000 3500
	1    0    0    -1  
$EndComp
Wire Wire Line
	3550 4000 3650 4000
Wire Wire Line
	3650 4000 3650 3600
Wire Wire Line
	3650 3600 2700 3600
Wire Wire Line
	2700 3600 2700 3900
Wire Wire Line
	2700 3900 2800 3900
$Comp
L R R8
U 1 1 54E3D555
P 2500 4400
F 0 "R8" V 2580 4400 50  0000 C CNN
F 1 "25k5" V 2507 4401 50  0000 C CNN
F 2 "" V 2430 4400 30  0000 C CNN
F 3 "" H 2500 4400 30  0000 C CNN
	1    2500 4400
	1    0    0    -1  
$EndComp
$Comp
L R R10
U 1 1 54E3D57A
P 2500 3800
F 0 "R10" V 2580 3800 50  0000 C CNN
F 1 "25k5" V 2507 3801 50  0000 C CNN
F 2 "" V 2430 3800 30  0000 C CNN
F 3 "" H 2500 3800 30  0000 C CNN
	1    2500 3800
	1    0    0    -1  
$EndComp
Wire Wire Line
	2500 4050 2500 4150
Wire Wire Line
	2800 4100 2500 4100
Connection ~ 2500 4100
$Comp
L VCC #PWR?
U 1 1 54E3D941
P 2500 3450
F 0 "#PWR?" H 2500 3300 60  0001 C CNN
F 1 "VCC" H 2500 3600 60  0000 C CNN
F 2 "" H 2500 3450 60  0000 C CNN
F 3 "" H 2500 3450 60  0000 C CNN
	1    2500 3450
	1    0    0    -1  
$EndComp
$Comp
L GND #PWR?
U 1 1 54E3D955
P 2500 4800
F 0 "#PWR?" H 2500 4550 60  0001 C CNN
F 1 "GND" H 2500 4650 60  0000 C CNN
F 2 "" H 2500 4800 60  0000 C CNN
F 3 "" H 2500 4800 60  0000 C CNN
	1    2500 4800
	1    0    0    -1  
$EndComp
Wire Wire Line
	2500 3450 2500 3550
Wire Wire Line
	2500 4650 2500 4800
$Comp
L TEMD7100X01 D?
U 1 1 54E4A291
P 2100 1700
F 0 "D?" H 2100 1800 50  0000 C CNN
F 1 "TEMD7100X01" H 2100 1400 50  0000 C CNN
F 2 "" H 2100 1700 60  0000 C CNN
F 3 "" H 2100 1700 60  0000 C CNN
	1    2100 1700
	0    1    1    0   
$EndComp
Text GLabel 6100 1800 2    60   Output ~ 0
RXFILT1
Text GLabel 6100 4000 2    60   Output ~ 0
RXFILT2
Connection ~ 5750 1800
Connection ~ 5750 4000
Text Notes 1200 4200 0    60   ~ 0
Power
$Comp
L LED D?
U 1 1 54E4E2F4
P 10700 1550
F 0 "D?" H 10700 1650 50  0000 C CNN
F 1 "LED" H 10700 1450 50  0000 C CNN
F 2 "" H 10700 1550 60  0000 C CNN
F 3 "" H 10700 1550 60  0000 C CNN
	1    10700 1550
	0    1    1    0   
$EndComp
$Comp
L npn Q?
U 1 1 54E4E67E
P 10600 2050
F 0 "Q?" H 10600 1900 50  0000 R CNN
F 1 "npn" H 10600 2200 50  0000 R CNN
F 2 "" H 10600 2050 60  0000 C CNN
F 3 "" H 10600 2050 60  0000 C CNN
	1    10600 2050
	1    0    0    -1  
$EndComp
$Comp
L R R?
U 1 1 54E4E6C1
P 10700 2600
F 0 "R?" V 10780 2600 50  0000 C CNN
F 1 "R" V 10707 2601 50  0000 C CNN
F 2 "" V 10630 2600 30  0000 C CNN
F 3 "" H 10700 2600 30  0000 C CNN
	1    10700 2600
	1    0    0    -1  
$EndComp
$Comp
L GND #PWR?
U 1 1 54E4E738
P 10700 2950
F 0 "#PWR?" H 10700 2700 60  0001 C CNN
F 1 "GND" H 10700 2800 60  0000 C CNN
F 2 "" H 10700 2950 60  0000 C CNN
F 3 "" H 10700 2950 60  0000 C CNN
	1    10700 2950
	1    0    0    -1  
$EndComp
Wire Wire Line
	10700 2250 10700 2350
Wire Wire Line
	10700 2850 10700 2950
Wire Wire Line
	10700 1750 10700 1850
$Comp
L VCC #PWR?
U 1 1 54E4E8FF
P 10700 1250
F 0 "#PWR?" H 10700 1100 60  0001 C CNN
F 1 "VCC" H 10700 1400 60  0000 C CNN
F 2 "" H 10700 1250 60  0000 C CNN
F 3 "" H 10700 1250 60  0000 C CNN
	1    10700 1250
	1    0    0    -1  
$EndComp
Wire Wire Line
	10700 1250 10700 1350
$Comp
L R R?
U 1 1 54E4E97C
P 10050 2050
F 0 "R?" V 10130 2050 50  0000 C CNN
F 1 "R" V 10057 2051 50  0000 C CNN
F 2 "" V 9980 2050 30  0000 C CNN
F 3 "" H 10050 2050 30  0000 C CNN
	1    10050 2050
	0    1    1    0   
$EndComp
Wire Wire Line
	10300 2050 10400 2050
$Comp
L npn Q?
U 1 1 54E4EA99
P 9600 1750
F 0 "Q?" H 9600 1600 50  0000 R CNN
F 1 "npn" H 9600 1900 50  0000 R CNN
F 2 "" H 9600 1750 60  0000 C CNN
F 3 "" H 9600 1750 60  0000 C CNN
	1    9600 1750
	1    0    0    -1  
$EndComp
Wire Wire Line
	9700 1950 9700 2050
Wire Wire Line
	9700 2050 9800 2050
$Comp
L VCC #PWR?
U 1 1 54E4EB9D
P 9700 1250
F 0 "#PWR?" H 9700 1100 60  0001 C CNN
F 1 "VCC" H 9700 1400 60  0000 C CNN
F 2 "" H 9700 1250 60  0000 C CNN
F 3 "" H 9700 1250 60  0000 C CNN
	1    9700 1250
	1    0    0    -1  
$EndComp
Wire Wire Line
	9700 1250 9700 1550
$Comp
L R R?
U 1 1 54E4EC31
P 9300 2600
F 0 "R?" V 9380 2600 50  0000 C CNN
F 1 "R" V 9307 2601 50  0000 C CNN
F 2 "" V 9230 2600 30  0000 C CNN
F 3 "" H 9300 2600 30  0000 C CNN
	1    9300 2600
	1    0    0    -1  
$EndComp
$Comp
L GND #PWR?
U 1 1 54E4ECAD
P 9300 2950
F 0 "#PWR?" H 9300 2700 60  0001 C CNN
F 1 "GND" H 9300 2800 60  0000 C CNN
F 2 "" H 9300 2950 60  0000 C CNN
F 3 "" H 9300 2950 60  0000 C CNN
	1    9300 2950
	1    0    0    -1  
$EndComp
Wire Wire Line
	9300 2850 9300 2950
Wire Wire Line
	9300 2350 9300 1750
Wire Wire Line
	9300 1750 9400 1750
$Comp
L npn Q?
U 1 1 54E4F8B2
P 9600 4100
F 0 "Q?" H 9600 3950 50  0000 R CNN
F 1 "npn" H 9600 4250 50  0000 R CNN
F 2 "" H 9600 4100 60  0000 C CNN
F 3 "" H 9600 4100 60  0000 C CNN
	1    9600 4100
	1    0    0    -1  
$EndComp
$Comp
L R R?
U 1 1 54E4F926
P 9700 3550
F 0 "R?" V 9780 3550 50  0000 C CNN
F 1 "R" V 9707 3551 50  0000 C CNN
F 2 "" V 9630 3550 30  0000 C CNN
F 3 "" H 9700 3550 30  0000 C CNN
	1    9700 3550
	1    0    0    -1  
$EndComp
$EndSCHEMATC
